Modelling cyclist count with (linear) multilevel models in Stan
…
Prepare the data (Finnish Meteorological Institute 2017, HRI (2017)) for the modelling by transforming the cyclist count on log-scale the variables and take a subset of 100 observations for training the model.

set.seed(1)
df_raw <- read_feather("data/df.feather")

df <- gather(df_raw, station, count, 
             -(1:4), factor_key = TRUE)

# sample 100 random dates and 
# select the corresponding observations from each station
n_tr <- 150
dates_tr <- sample(df_raw$date, n_tr)
(df_tr <- filter(df, date %in% dates_tr))

## # A tibble: 1,650 x 6
##          date  wkday  rain  temp    station count
##        <date> <fctr> <dbl> <dbl>     <fctr> <int>
##  1 2015-05-15    Fri   0.0   6.4 huopalahti  1385
##  2 2015-05-16    Sat   0.0   8.5 huopalahti   851
##  3 2015-05-23    Sat   1.7   9.6 huopalahti   644
##  4 2015-05-27    Wed   0.0  12.8 huopalahti  2906
##  5 2015-06-12    Fri   0.0  13.4 huopalahti  2013
##  6 2015-06-19    Fri   0.0  12.9 huopalahti   417
##  7 2015-06-20    Sat   2.1  12.9 huopalahti   374
##  8 2015-06-22    Mon   0.0  14.0 huopalahti  1653
##  9 2015-06-29    Mon   0.0  16.6 huopalahti  2775
## 10 2015-07-04    Sat   0.0  21.1 huopalahti  1001
## # ... with 1,640 more rows
…
